<?xml version="1.0" standalone="no"?>
<!DOCTYPE svg PUBLIC "-//W3C//DTD SVG 20010904//EN"
 "http://www.w3.org/TR/2001/REC-SVG-20010904/DTD/svg10.dtd">
<svg version="1.0" xmlns="http://www.w3.org/2000/svg"
 width="700.000000pt" height="700.000000pt" viewBox="0 0 700.000000 700.000000"
 preserveAspectRatio="xMidYMid meet">
<metadata>
Created by potrace 1.14, written by Peter Selinger 2001-2017
</metadata>
<g transform="translate(0.000000,700.000000) scale(0.100000,-0.100000)"
fill="#000000" stroke="none">
<path d="M3487 5935 c-1 -1 -63 -5 -137 -9 -139 -6 -147 -7 -290 -32 -163 -27
-242 -47 -396 -99 -804 -269 -1420 -893 -1683 -1706 -32 -99 -76 -281 -87
-359 -3 -25 -8 -54 -10 -65 -4 -19 -7 -47 -19 -170 -6 -59 -6 -354 -1 -405 2
-19 7 -66 11 -104 3 -38 8 -72 9 -75 2 -3 7 -28 10 -56 4 -27 9 -59 11 -70
106 -527 348 -979 730 -1361 383 -383 852 -632 1370 -729 99 -19 111 -21 205
-30 36 -4 76 -8 90 -11 32 -5 367 -5 400 0 14 3 56 7 93 11 37 3 76 8 86 10
10 2 36 6 57 9 304 46 629 166 921 340 657 390 1122 1069 1247 1821 14 86 19
127 31 260 11 116 6 361 -9 480 -3 22 -8 60 -11 85 -3 25 -10 68 -15 95 -6 28
-12 59 -14 70 -57 291 -196 625 -373 900 -122 187 -280 371 -464 536 -208 187
-505 370 -769 474 -99 39 -323 110 -375 119 -16 3 -41 8 -55 11 -35 8 -126 24
-180 31 -25 3 -56 7 -70 9 -14 2 -74 7 -135 10 -60 4 -125 8 -143 9 -18 1 -33
2 -35 1z"/>
</g>
</svg>
